…
``` r
p2016_precinct <- add_precinct(p2016, pkey)
p2016_precinct
```

    ## # A tibble: 37,284 x 4
    ##    county      p_name                               precinct_id text      
    ##    <chr>       <chr>                                      <int> <chr>     
    ##  1 Spartanburg PRECINCT 1 - Woodruff Leisure Center           1 5131172  …
    ##  2 Spartanburg PRECINCT 1 - Woodruff Leisure Center           1 5131172  …
    ##  3 Spartanburg PRECINCT 1 - Woodruff Leisure Center           1 5131172  …
    ##  4 Spartanburg PRECINCT 1 - Woodruff Leisure Center           1 5131172  …
    ##  5 Spartanburg PRECINCT 1 - Woodruff Leisure Center           1 5131172  …
    ##  6 Spartanburg PRECINCT 1 - Woodruff Leisure Center           1 5131172  …
    ##  7 Spartanburg PRECINCT 1 - Woodruff Leisure Center           1 5131172  …
    ##  8 Spartanburg PRECINCT 1 - Woodruff Leisure Center           1 5131172  …
    ##  9 Spartanburg PRECINCT 1 - Woodruff Leisure Center           1 5131172  …
    ## 10 Spartanburg PRECINCT 1 - Woodruff Leisure Center           1 5131172  …
    ## # ... with 37,274 more rows
…
    ## Warning in rbind(names(probs), probs_f): number of columns of result is not
    ## a multiple of vector length (arg 1)

    ## Warning: 37284 parsing failures.
    ## row # A tibble: 5 x 5 col     row col   expected actual file         expected   <int> <chr> <chr>    <chr>  <chr>        actual 1     1 race  71 chars 7      literal data file 2     2 race  71 chars 22     literal data row 3     3 race  71 chars 7      literal data col 4     4 race  71 chars 22     literal data expected 5     5 race  71 chars 7      literal data
    ## ... ................. ... .......................................... ........ .......................................... ...... .......................................... .... .......................................... ... .......................................... ... .......................................... ........ ..........................................
    ## See problems(...) for more details.

``` r
p2016_parsed
```

    ## # A tibble: 37,284 x 9
    ##    county  p_name precinct_id machine ballot_style cand_id cand_name race 
    ##    <chr>   <chr>        <int>   <int>        <int>   <int> <chr>     <chr>
    ##  1 Sparta… PRECI…           1 5131172            2       2 Scott Ra… Coro…
    ##  2 Sparta… PRECI…           1 5131172            2       5 Jane Hall CCL0…
    ##  3 Sparta… PRECI…           1 5131172            2       1 Rusty Cl… Coro…
    ##  4 Sparta… PRECI…           1 5131172            2       4 Whitney … CCL0…
    ##  5 Sparta… PRECI…           1 5131172            2       1 Rusty Cl… Coro…
    ##  6 Sparta… PRECI…           1 5131172            2       5 Jane Hall CCL0…
    ##  7 Sparta… PRECI…           1 5131172            2       1 Rusty Cl… Coro…
    ##  8 Sparta… PRECI…           1 5131172            2       4 Whitney … CCL0…
    ##  9 Sparta… PRECI…           1 5131172            2       1 Rusty Cl… Coro…
    ## 10 Sparta… PRECI…           1 5131172            2       4 Whitney … CCL0…
    ## # ... with 37,274 more rows, and 1 more variable: voter_top <int>
…
``` r
df <- add_unique_id(with_voter)
```

Finally, cast the long dataset to wide, to voter level

``` r
tbl <- dcast(as.data.table(df),  voter_id ~ race, value.var = "cand_name") %>% 
  tbl_df()

tbl
```

    ## # A tibble: 17,068 x 12
    ##    voter_id   `(NO VOTES CAST)` `CCL0003 County Coun… `CCL0004 County Cou…
    ##    <chr>      <chr>             <chr>                 <chr>               
    ##  1 45083-000… <NA>              <NA>                  Jane Hall           
    ##  2 45083-000… <NA>              <NA>                  Whitney Farr        
    ##  3 45083-000… <NA>              <NA>                  Jane Hall           
    ##  4 45083-000… <NA>              <NA>                  Whitney Farr        
    ##  5 45083-000… <NA>              <NA>                  Whitney Farr        
    ##  6 45083-000… <NA>              <NA>                  Jane Hall           
    ##  7 45083-000… <NA>              <NA>                  Jane Hall           
    ##  8 45083-000… <NA>              <NA>                  Whitney Farr        
    ##  9 45083-000… <NA>              <NA>                  Whitney Farr        
    ## 10 45083-000… <NA>              <NA>                  Whitney Farr        
    ## # ... with 17,058 more rows, and 8 more variables: `CON0005 U.S. House of
    ## #   Representatives` <chr>, Coroner <chr>, `HOU0031 State House of
    ## #   Representatives` <chr>, `HOU0037 State House of
    ## #   Representatives` <chr>, `HOU0038 State House of
    ## #   Representatives` <chr>, `SEN0005 State Senate` <chr>, `SEN0012 State
    ## #   Senate` <chr>, `SEN0014 State Senate` <chr>
